{"Заказ №1":{"Id заказа":"f5ce3a28-0076-47a9-8897-48e459629c2a","Время создания":1535464067937,"Время ожидания":1535464071288,"Статус заказа":"В ожидании","Данные пользователя":{"ID пользователя":"71bd59ce-df04-45de-9b64-d0e9f7493a21","Имя":"Алексей","Фамилия":"Владмиров","Отчество":"Петрович","email":"Алексей@yandex.ru"},"Корзина":{"Id корзины":"7c1ceab8-daf1-4c93-b239-de313d138ab0","Содержимое корзины":[{"ID товара":"f6eafe26-8fba-4dfc-98d0-ffcec5941f73","Цена":150.0,"Название":"Черная карта","Фирма поставщик":"lavAzza","Страна производитель":"Бразилия","Вид кофейных зерен":"Арабика","Продукт":"Кофе"},{"ID товара":"56287550-4c09-4e3c-8146-b1fc347623ce","Цена":2233.3333333333335,"Название":"Dilmah","Фирма поставщик":"TESS","Страна производитель":"Эфиопия","Вид упаковки":"Деревянная","Продукт":"Чай"},{"ID товара":"8bf0c316-be76-4928-a903-b394ae857593","Цена":183.33333333333334,"Название":"CORTE NOIRE","Фирма поставщик":"Bravas","Страна производитель":"Вьетнам","Вид кофейных зерен":"Робуста","Продукт":"Кофе"},{"ID товара":"d33125dc-3b02-4854-a833-461873294c75","Цена":100.0,"Название":"Lipton","Фирма поставщик":"Uniliver","Страна производитель":"Бразилия","Вид упаковки":"Картонная","Продукт":"Чай"},{"ID товара":"cc7eb5ba-29e8-4b80-8346-a22c553e5853","Цена":2283.3333333333335,"Название":"Жокей","Фирма поставщик":"Caffe Boast","Страна производитель":"Эфиопия","Вид кофейных зерен":"Арабика","Продукт":"Кофе"},{"ID товара":"9fd06101-cd46-4197-8780-b317ffbb361b","Цена":133.33333333333334,"Название":"Принцесса Нури","Фирма поставщик":"Ahmad Tea","Страна производитель":"Вьетнам","Вид упаковки":"Бумажная","Продукт":"Чай"},{"ID товара":"cffa4e2b-a957-4a38-b3cd-e3c22d7810d5","Цена":150.0,"Название":"Черная карта","Фирма поставщик":"lavAzza","Страна производитель":"Бразилия","Вид кофейных зерен":"Арабика","Продукт":"Кофе"},{"ID товара":"b44bbae3-6c41-4bc5-b972-ffc257d63435","Цена":2233.3333333333335,"Название":"Dilmah","Фирма поставщик":"TESS","Страна производитель":"Эфиопия","Вид упаковки":"Деревянная","Продукт":"Чай"}]}},"Заказ №2":{"Id заказа":"2062f6fa-e045-45a4-8193-b053a3319858","Время создания":1535464067938,"Время ожидания":1535464070421,"Статус заказа":"В ожидании","Данные пользователя":{"ID пользователя":"da518a9e-2a55-48db-bb72-ff1b6404b045","Имя":"Александр","Фамилия":"Иванов","Отчество":"Александрович","email":"Александр@list.ru"},"Корзина":{"Id корзины":"7b1c752c-5b9f-4e43-b9de-1318776334ca","Содержимое корзины":[{"ID товара":"cd5c7ef7-f049-4d8f-aa2b-30828d40a263","Цена":416.6666666666667,"Название":"Jardin","Фирма поставщик":"BestCoffee","Страна производитель":"Индонезия","Вид кофейных зерен":"Арабика","Продукт":"Кофе"},{"ID товара":"aa6f84c7-8bcf-4db5-a286-4adde342de8f","Цена":2233.3333333333335,"Название":"Dilmah","Фирма поставщик":"TESS","Страна производитель":"Эфиопия","Вид упаковки":"Деревянная","Продукт":"Чай"},{"ID товара":"f82f4123-bc1a-4eed-bea6-e00add0c32d5","Цена":150.0,"Название":"Черная карта","Фирма поставщик":"lavAzza","Страна производитель":"Бразилия","Вид кофейных зерен":"Арабика","Продукт":"Кофе"},{"ID товара":"aac909cb-9b63-4e59-aa0b-cda73e00151c","Цена":100.0,"Название":"Lipton","Фирма поставщик":"Uniliver","Страна производитель":"Бразилия","Вид упаковки":"Картонная","Продукт":"Чай"},{"ID товара":"fb8d372f-f03b-47b2-8e4c-b0509220793c","Цена":150.0,"Название":"Черная карта","Фирма поставщик":"lavAzza","Страна производитель":"Бразилия","Вид кофейных зерен":"Арабика","Продукт":"Кофе"},{"ID товара":"e40c255d-ef49-4b99-a748-00857b0bfc08","Цена":2233.3333333333335,"Название":"Dilmah","Фирма поставщик":"TESS","Страна производитель":"Эфиопия","Вид упаковки":"Деревянная","Продукт":"Чай"},{"ID товара":"5faf0528-f92d-4d50-a5e5-07372f59003d","Цена":1050.0,"Название":"Ambassador","Фирма поставщик":"Coffe Vend","Страна производитель":"Колумбия","Вид кофейных зерен":"Робуста","Продукт":"Кофе"},{"ID товара":"d5ae8fb4-7a58-42fd-a515-871231a23650","Цена":2233.3333333333335,"Название":"Dilmah","Фирма поставщик":"TESS","Страна производитель":"Эфиопия","Вид упаковки":"Деревянная","Продукт":"Чай"}]}}}
{
  "Заказ №1": {
    "Id заказа": "f5ce3a28-0076-47a9-8897-48e459629c2a",
    "Время создания": 1535464067937,
    "Время ожидания": 1535464071288,
    "Статус заказа": "В ожидании",
    "Данные пользователя": {
      "ID пользователя": "71bd59ce-df04-45de-9b64-d0e9f7493a21",
      "Имя": "Алексей",
      "Фамилия": "Владмиров",
      "Отчество": "Петрович",
      "email": "Алексей@yandex.ru"
    },
    "Корзина": {
      "Id корзины": "7c1ceab8-daf1-4c93-b239-de313d138ab0",
      "Содержимое корзины": [
        {
          "ID товара": "f6eafe26-8fba-4dfc-98d0-ffcec5941f73",
          "Цена": 150.0,
          "Название": "Черная карта",
          "Фирма поставщик": "lavAzza",
          "Страна производитель": "Бразилия",
          "Вид кофейных зерен": "Арабика",
          "Продукт": "Кофе"
        },
        {
          "ID товара": "56287550-4c09-4e3c-8146-b1fc347623ce",
          "Цена": 2233.3333333333335,
          "Название": "Dilmah",
          "Фирма поставщик": "TESS",
          "Страна производитель": "Эфиопия",
          "Вид упаковки": "Деревянная",
          "Продукт": "Чай"
        },
        {
          "ID товара": "8bf0c316-be76-4928-a903-b394ae857593",
          "Цена": 183.33333333333334,
          "Название": "CORTE NOIRE",
          "Фирма поставщик": "Bravas",
          "Страна производитель": "Вьетнам",
          "Вид кофейных зерен": "Робуста",
          "Продукт": "Кофе"
        },
        {
          "ID товара": "d33125dc-3b02-4854-a833-461873294c75",
          "Цена": 100.0,
          "Название": "Lipton",
          "Фирма поставщик": "Uniliver",
          "Страна производитель": "Бразилия",
          "Вид упаковки": "Картонная",
          "Продукт": "Чай"
        },
        {
          "ID товара": "cc7eb5ba-29e8-4b80-8346-a22c553e5853",
          "Цена": 2283.3333333333335,
          "Название": "Жокей",
          "Фирма поставщик": "Caffe Boast",
          "Страна производитель": "Эфиопия",
          "Вид кофейных зерен": "Арабика",
          "Продукт": "Кофе"
        },
        {
          "ID товара": "9fd06101-cd46-4197-8780-b317ffbb361b",
          "Цена": 133.33333333333334,
          "Название": "Принцесса Нури",
          "Фирма поставщик": "Ahmad Tea",
          "Страна производитель": "Вьетнам",
          "Вид упаковки": "Бумажная",
          "Продукт": "Чай"
        },
        {
          "ID товара": "cffa4e2b-a957-4a38-b3cd-e3c22d7810d5",
          "Цена": 150.0,
          "Название": "Черная карта",
          "Фирма поставщик": "lavAzza",
          "Страна производитель": "Бразилия",
          "Вид кофейных зерен": "Арабика",
          "Продукт": "Кофе"
        },
        {
          "ID товара": "b44bbae3-6c41-4bc5-b972-ffc257d63435",
          "Цена": 2233.3333333333335,
          "Название": "Dilmah",
          "Фирма поставщик": "TESS",
          "Страна производитель": "Эфиопия",
          "Вид упаковки": "Деревянная",
          "Продукт": "Чай"
        }
      ]
    }
  },
  "Заказ №2": {
    "Id заказа": "2062f6fa-e045-45a4-8193-b053a3319858",
    "Время создания": 1535464067938,
    "Время ожидания": 1535464070421,
    "Статус заказа": "В ожидании",
    "Данные пользователя": {
      "ID пользователя": "da518a9e-2a55-48db-bb72-ff1b6404b045",
      "Имя": "Александр",
      "Фамилия": "Иванов",
      "Отчество": "Александрович",
      "email": "Александр@list.ru"
    },
    "Корзина": {
      "Id корзины": "7b1c752c-5b9f-4e43-b9de-1318776334ca",
      "Содержимое корзины": [
        {
          "ID товара": "cd5c7ef7-f049-4d8f-aa2b-30828d40a263",
          "Цена": 416.6666666666667,
          "Название": "Jardin",
          "Фирма поставщик": "BestCoffee",
          "Страна производитель": "Индонезия",
          "Вид кофейных зерен": "Арабика",
          "Продукт": "Кофе"
        },
        {
          "ID товара": "aa6f84c7-8bcf-4db5-a286-4adde342de8f",
          "Цена": 2233.3333333333335,
          "Название": "Dilmah",
          "Фирма поставщик": "TESS",
          "Страна производитель": "Эфиопия",
          "Вид упаковки": "Деревянная",
          "Продукт": "Чай"
        },
        {
          "ID товара": "f82f4123-bc1a-4eed-bea6-e00add0c32d5",
          "Цена": 150.0,
          "Название": "Черная карта",
          "Фирма поставщик": "lavAzza",
          "Страна производитель": "Бразилия",
          "Вид кофейных зерен": "Арабика",
          "Продукт": "Кофе"
        },
        {
          "ID товара": "aac909cb-9b63-4e59-aa0b-cda73e00151c",
          "Цена": 100.0,
          "Название": "Lipton",
          "Фирма поставщик": "Uniliver",
          "Страна производитель": "Бразилия",
          "Вид упаковки": "Картонная",
          "Продукт": "Чай"
        },
        {
          "ID товара": "fb8d372f-f03b-47b2-8e4c-b0509220793c",
          "Цена": 150.0,
          "Название": "Черная карта",
          "Фирма поставщик": "lavAzza",
          "Страна производитель": "Бразилия",
          "Вид кофейных зерен": "Арабика",
          "Продукт": "Кофе"
        },
        {
          "ID товара": "e40c255d-ef49-4b99-a748-00857b0bfc08",
          "Цена": 2233.3333333333335,
          "Название": "Dilmah",
          "Фирма поставщик": "TESS",
          "Страна производитель": "Эфиопия",
          "Вид упаковки": "Деревянная",
          "Продукт": "Чай"
        },
        {
          "ID товара": "5faf0528-f92d-4d50-a5e5-07372f59003d",
          "Цена": 1050.0,
          "Название": "Ambassador",
          "Фирма поставщик": "Coffe Vend",
          "Страна производитель": "Колумбия",
          "Вид кофейных зерен": "Робуста",
          "Продукт": "Кофе"
        },
        {
          "ID товара": "d5ae8fb4-7a58-42fd-a515-871231a23650",
          "Цена": 2233.3333333333335,
          "Название": "Dilmah",
          "Фирма поставщик": "TESS",
          "Страна производитель": "Эфиопия",
          "Вид упаковки": "Деревянная",
          "Продукт": "Чай"
        }
      ]
    }
  }
}